{"db_path": "./db.json",
 "title": "MinItinerary",
 "start_date": "2024-03-09",
 "end_date": "2024-03-15",

 "admin_username": "admin",
 "users": [["admin", "pass"]],
 
 "background-color": "violet",
 "foreground-color": "black",
 "even-color": "pink",
 "odd-color": "lightblue",
 "font": "serif"}
